[
    {
        "title": "Picture feacture numero one",
        "price": "",
        "thumbnail": [
            "assets/img/gallery/1.jpg",
            "assets/img/gallery/2_1.jpg"
        ],
        "caption": "caption",
        "description": "description",
        "featured": false,
        "author": {
            "name": "Alex Nester",
            "rating": 4,
            "avatar": "/assets/img/profiles/avatar.jpg",
            "avatar2x": "/assets/img/profiles/avatar2x.jpg"
        } 
    },
    {
        "title": "Happy Ninja destacado",
        "price": "",
        "thumbnail": [
            "assets/img/gallery/2_1.jpg",
            "assets/img/gallery/2_2.jpg"
        ],
        "caption": "Hand and mind crafted",
        "description": "Most Sold Item in the marketplace",
        "featured": true,
        "author": {
            "name": "Alex Nester",
            "rating": 4,
            "avatar": "/assets/img/profiles/avatar.jpg",
            "avatar2x": "/assets/img/profiles/avatar2x.jpg"
        } 
    },
    {
        "title": "Happy Ninja",
        "price": "",
        "thumbnail": ["assets/img/gallery/3.jpg"],
        "caption": "",
        "description": "",
        "featured": false,
        "author": {
            "name": "Alex Nester",
            "rating": 4,
            "avatar": "/assets/img/profiles/avatar.jpg",
            "avatar2x": "/assets/img/profiles/avatar2x.jpg"
        } 
    },
    {
        "title": "Happy Ninja",
        "price": "21.25",
        "thumbnail": ["assets/img/gallery/4.jpg"],
        "caption": "",
        "description": "",
        "featured": false,
        "author": {
            "name": "Alex Nester",
            "rating": 4,
            "avatar": "/assets/img/profiles/avatar.jpg",
            "avatar2x": "/assets/img/profiles/avatar2x.jpg"
        } 
    },
    {
        "title": "Happy Ninja",
        "price": "",
        "thumbnail": ["assets/img/gallery/5.jpg"],
        "caption": "",
        "description": "",
        "featured": false,
        "author": {
            "name": "Alex Nester",
            "rating": 4,
            "avatar": "/assets/img/profiles/avatar.jpg",
            "avatar2x": "/assets/img/profiles/avatar2x.jpg"
        } 
    },
    {
        "title": "Happy Ninja",
        "price": "",
        "thumbnail": ["assets/img/gallery/6.jpg"],
        "caption": "",
        "description": "",
        "featured": false,
        "author": {
            "name": "Alex Nester",
            "rating": 4,
            "avatar": "/assets/img/profiles/avatar.jpg",
            "avatar2x": "/assets/img/profiles/avatar2x.jpg"
        } 
    },
    {
        "title": "Happy Ninja",
        "price": "",
        "thumbnail": ["assets/img/gallery/7.jpg"],
        "caption": "",
        "description": "",
        "featured": false,
        "author": {
            "name": "Alex Nester",
            "rating": 4,
            "avatar": "/assets/img/profiles/avatar.jpg",
            "avatar2x": "/assets/img/profiles/avatar2x.jpg"
        } 
    },
    {
        "title": "Happy Ninja",
        "price": "",
        "thumbnail": ["assets/img/gallery/8.jpg"],
        "caption": "",
        "description": "",
        "featured": false,
        "author": {
            "name": "Alex Nester",
            "rating": 4,
            "avatar": "/assets/img/profiles/avatar.jpg",
            "avatar2x": "/assets/img/profiles/avatar2x.jpg"
        } 
    },
    {
        "title": "Happy Ninja",
        "price": "",
        "thumbnail": ["assets/img/gallery/9.jpg"],
        "caption": "",
        "description": "",
        "featured": false,
        "author": {
            "name": "Alex Nester",
            "rating": 4,
            "avatar": "/assets/img/profiles/avatar.jpg",
            "avatar2x": "/assets/img/profiles/avatar2x.jpg"
        } 
    },
    {
        "title": "Happy Ninja",
        "price": "",
        "thumbnail": ["assets/img/gallery/10.jpg"],
        "caption": "",
        "description": "",
        "featured": false,
        "author": {
            "name": "Alex Nester",
            "rating": 4,
            "avatar": "/assets/img/profiles/avatar.jpg",
            "avatar2x": "/assets/img/profiles/avatar2x.jpg"
        } 
    },
    {
        "title": "Happy Ninja",
        "price": "",
        "thumbnail": ["assets/img/gallery/11.jpg"],
        "caption": "",
        "description": "",
        "featured": false,
        "author": {
            "name": "Alex Nester",
            "rating": 4,
            "avatar": "/assets/img/profiles/avatar.jpg",
            "avatar2x": "/assets/img/profiles/avatar2x.jpg"
        } 
    },
    {
        "title": "Happy Ninja",
        "price": "",
        "thumbnail": ["assets/img/gallery/12.jpg"],
        "caption": "",
        "description": "",
        "featured": false,
        "author": {
            "name": "Alex Nester",
            "rating": 4,
            "avatar": "/assets/img/profiles/avatar.jpg",
            "avatar2x": "/assets/img/profiles/avatar2x.jpg"
        } 
    },
    {
        "title": "Happy Ninja",
        "price": "",
        "thumbnail": ["assets/img/gallery/13.jpg"],
        "caption": "",
        "description": "",
        "featured": false,
        "author": {
            "name": "Alex Nester",
            "rating": 4,
            "avatar": "/assets/img/profiles/avatar.jpg",
            "avatar2x": "/assets/img/profiles/avatar2x.jpg"
        } 
    },
    {
        "title": "Happy Ninja",
        "price": "",
        "thumbnail": ["assets/img/gallery/14.jpg"],
        "caption": "",
        "description": "",
        "featured": false,
        "author": {
            "name": "Alex Nester",
            "rating": 4,
            "avatar": "/assets/img/profiles/avatar.jpg",
            "avatar2x": "/assets/img/profiles/avatar2x.jpg"
        } 
    }
]
