{
    "android": {
        "release": {
            "keystore": "qmtprod-key.keystore",
            "storePassword": "NOfumar34",
            "alias": "qmtprod",
            "password": "NOfumar34",
            "keystoreType": ""
    },
	    "debug": {
		    "keystore": "qmtprod-key.keystore",
		    "storePassword": "NOfumar34",
		    "alias": "qmtprod",
		    "password" : "NOfumar34",
			"keystoreType": "",
			"debuggable": true
        }
    }
}