<svg id="Capa_1" enable-background="new 0 0 458.353 458.353" height="512" viewBox="0 0 458.353 458.353" width="512" xmlns="http://www.w3.org/2000/svg">
<path id="path-1" d="m85.941 143.235h286.471v28.647h-286.471z" transform="translate(3 5)"/>
<path id="path-2" d="m28.647 286.471h401.059v28.647h-401.059z" transform="translate(1 10)"/>

</svg>